delta_time/s, Latitude/deg, Longitude/deg, brightness, duration/s
2, 0, 0, 2, 0.5
2, 0, 5, 2, 0.5
2, 0, 10, 2, 0.5
2, 0, 15, 2, 0.5
2, 0, 20, 2, 0.5
2, 0, 25, 2, 0.5
2, 0, 30, 2, 0.5
2, 0, 35, 2, 0.5
2, 0, 40, 2, 0.5
2, 0, 45, 2, 0.5
2, 10, 45, 2, 0.5
2, 10, 40, 2, 0.5
2, 10, 35, 2, 0.5
2, 10, 30, 2, 0.5
2, 10, 25, 2, 0.5
2, 10, 20, 2, 0.5
2, 10, 15, 2, 0.5
2, 10, 10, 2, 0.5
2, 10, 5, 2, 0.5
2, 10, 00, 2, 0.5
100, 0, 0, 2, 10.
